{
  "name": "answer",
  "base": "PersistedModel",
  "idInjection": true,
  "options": {
    "validateUpsert": true
  },
  "properties": {
    "linkedCollector": {
      "type": "string"
      
    },
    "linkedSurvey": {
      "type": "string"
    },
    "linkedSurveyVersion": {
      "type": "number"
    },
    "date": {
      "type": "string"
    },
    "userIp": {
      "type": "string"
    },
    "pages": {
      "type": [
        "object"
      ],
      "default": []
    }
  },
  "validations": [],
  "relations": {},
  "acls": [],
  "methods": {}
}
